{
  "data": {
    "course": {
      "id": "1",
      "slug": "test-engineering-course-1-test0001",
      "name": "Test Engineering Course 1",
      "codes": "TEST0001",
      "modified": "2020-01-01T12:00:00+00:00",
      "created": "2020-01-01T12:00:00+00:00",
      "score": 0,
      "starred": true,
      "starCount": 1,
      "commentCount": 18,
      "vote": null,
      "subjects": [
        {
          "slug": "computer-engineering"
        },
        {
          "slug": "computer-science"
        }
      ],
      "school": {
        "id": "1",
        "slug": "university-of-turku"
      },
      "user": {
        "id": "2",
        "slug": "testuser2",
        "username": "testuser2"
      }
    },
    "resources": {
      "page": 1,
      "pages": 2,
      "hasNext": true,
      "hasPrev": false,
      "count": 15,
      "objects": [
        {
          "slug": "sample-exam-1-2012-12-12",
          "title": "Sample Exam 1",
          "score": 0,
          "date": "2012-12-12",
          "starCount": 1,
          "commentCount": 4,
          "downloads": 0,
          "created": "2020-01-01T12:00:00+00:00",
          "resourceType": {
            "name": "Exercise"
          },
          "user": {
            "slug": "testuser2",
            "username": "testuser2"
          },
          "resourceCourse": {
            "slug": "test-engineering-course-1-test0001"
          }
        },
        {
          "slug": "sample-exam-2-2012-12-12",
          "title": "Sample Exam 2",
          "score": 0,
          "date": "2012-12-12",
          "starCount": 1,
          "commentCount": 1,
          "downloads": 0,
          "created": "2020-01-01T12:00:00+00:00",
          "resourceType": {
            "name": "Exercise"
          },
          "user": {
            "slug": "testuser10",
            "username": "testuser10"
          },
          "resourceCourse": {
            "slug": "test-engineering-course-1-test0001"
          }
        },
        {
          "slug": "sample-exercise-2012-12-12",
          "title": "Sample Exercise",
          "score": 0,
          "date": "2012-12-12",
          "starCount": 0,
          "commentCount": 1,
          "downloads": 0,
          "created": "2020-01-01T12:00:00+00:00",
          "resourceType": {
            "name": "Note"
          },
          "user": null,
          "resourceCourse": {
            "slug": "test-engineering-course-1-test0001"
          }
        },
        {
          "slug": "sample-exercise-10-2012-12-12",
          "title": "Sample Exercise 10",
          "score": 0,
          "date": "2012-12-12",
          "starCount": 0,
          "commentCount": 1,
          "downloads": 0,
          "created": "2020-01-01T12:00:00+00:00",
          "resourceType": {
            "name": "Note"
          },
          "user": {
            "slug": "testuser2",
            "username": "testuser2"
          },
          "resourceCourse": {
            "slug": "test-engineering-course-1-test0001"
          }
        },
        {
          "slug": "sample-exercise-11-2012-12-12",
          "title": "Sample Exercise 11",
          "score": 0,
          "date": "2012-12-12",
          "starCount": 0,
          "commentCount": 1,
          "downloads": 0,
          "created": "2020-01-01T12:00:00+00:00",
          "resourceType": {
            "name": "Note"
          },
          "user": {
            "slug": "testuser2",
            "username": "testuser2"
          },
          "resourceCourse": {
            "slug": "test-engineering-course-1-test0001"
          }
        },
        {
          "slug": "sample-exercise-12-2012-12-12",
          "title": "Sample Exercise 12",
          "score": 0,
          "date": "2012-12-12",
          "starCount": 0,
          "commentCount": 1,
          "downloads": 0,
          "created": "2020-01-01T12:00:00+00:00",
          "resourceType": {
            "name": "Note"
          },
          "user": {
            "slug": "testuser2",
            "username": "testuser2"
          },
          "resourceCourse": {
            "slug": "test-engineering-course-1-test0001"
          }
        },
        {
          "slug": "sample-exercise-2-2012-12-12",
          "title": "Sample Exercise 2",
          "score": 0,
          "date": "2012-12-12",
          "starCount": 0,
          "commentCount": 1,
          "downloads": 0,
          "created": "2020-01-01T12:00:00+00:00",
          "resourceType": {
            "name": "Note"
          },
          "user": {
            "slug": "testuser2",
            "username": "testuser2"
          },
          "resourceCourse": {
            "slug": "test-engineering-course-1-test0001"
          }
        },
        {
          "slug": "sample-exercise-3-2012-12-12",
          "title": "Sample Exercise 3",
          "score": 0,
          "date": "2012-12-12",
          "starCount": 0,
          "commentCount": 1,
          "downloads": 0,
          "created": "2020-01-01T12:00:00+00:00",
          "resourceType": {
            "name": "Note"
          },
          "user": {
            "slug": "testuser2",
            "username": "testuser2"
          },
          "resourceCourse": {
            "slug": "test-engineering-course-1-test0001"
          }
        },
        {
          "slug": "sample-exercise-4-2012-12-12",
          "title": "Sample Exercise 4",
          "score": 0,
          "date": "2012-12-12",
          "starCount": 0,
          "commentCount": 1,
          "downloads": 0,
          "created": "2020-01-01T12:00:00+00:00",
          "resourceType": {
            "name": "Note"
          },
          "user": {
            "slug": "testuser2",
            "username": "testuser2"
          },
          "resourceCourse": {
            "slug": "test-engineering-course-1-test0001"
          }
        },
        {
          "slug": "sample-exercise-5-2012-12-12",
          "title": "Sample Exercise 5",
          "score": 0,
          "date": "2012-12-12",
          "starCount": 0,
          "commentCount": 1,
          "downloads": 0,
          "created": "2020-01-01T12:00:00+00:00",
          "resourceType": {
            "name": "Note"
          },
          "user": {
            "slug": "testuser2",
            "username": "testuser2"
          },
          "resourceCourse": {
            "slug": "test-engineering-course-1-test0001"
          }
        }
      ]
    }
  }
}
