{
  "data": {
    "threads": {
      "page": 1,
      "pages": 2,
      "hasPrev": false,
      "hasNext": true,
      "count": 28,
      "objects": [
        {
          "id": "1",
          "slug": "test-thread-1",
          "title": "Test Thread 1",
          "text": "Test thread 1 text.",
          "image": "/media/uploads/attachments/test_image.png",
          "imageThumbnail": "/media/CACHE/images/uploads/attachments/test_image/5015cd33f3fb226758e9dd72309fb84f.jpg",
          "score": 0,
          "starred": false,
          "starCount": 0,
          "commentCount": 26,
          "created": "2020-01-01T12:00:00+00:00",
          "modified": "2020-01-01T12:00:00+00:00",
          "vote": null,
          "user": {
            "id": "2",
            "slug": "testuser2",
            "username": "testuser2"
          }
        },
        {
          "id": "3",
          "slug": "test-thread-3",
          "title": "Test Thread 3",
          "text": "Test thread 3 text.",
          "image": "/media/uploads/attachments/test_image.png",
          "imageThumbnail": "/media/CACHE/images/uploads/attachments/test_image/5015cd33f3fb226758e9dd72309fb84f.jpg",
          "score": 0,
          "starred": false,
          "starCount": 0,
          "commentCount": 1,
          "created": "2020-01-01T12:00:00+00:00",
          "modified": "2020-01-01T12:00:00+00:00",
          "vote": null,
          "user": {
            "id": "4",
            "slug": "testuser4",
            "username": "testuser4"
          }
        },
        {
          "id": "4",
          "slug": "test-thread-4",
          "title": "Test Thread 4",
          "text": "Test thread 4 text.",
          "image": "/media/uploads/attachments/test_image.png",
          "imageThumbnail": "/media/CACHE/images/uploads/attachments/test_image/5015cd33f3fb226758e9dd72309fb84f.jpg",
          "score": 0,
          "starred": false,
          "starCount": 0,
          "commentCount": 1,
          "created": "2020-01-01T12:00:00+00:00",
          "modified": "2020-01-01T12:00:00+00:00",
          "vote": null,
          "user": {
            "id": "2",
            "slug": "testuser2",
            "username": "testuser2"
          }
        },
        {
          "id": "5",
          "slug": "test-thread-5",
          "title": "Test Thread 5",
          "text": "Test thread 5 text.",
          "image": "/media/uploads/attachments/test_image.png",
          "imageThumbnail": "/media/CACHE/images/uploads/attachments/test_image/5015cd33f3fb226758e9dd72309fb84f.jpg",
          "score": 0,
          "starred": false,
          "starCount": 0,
          "commentCount": 1,
          "created": "2020-01-01T12:00:00+00:00",
          "modified": "2020-01-01T12:00:00+00:00",
          "vote": null,
          "user": {
            "id": "3",
            "slug": "testuser3",
            "username": "testuser3"
          }
        },
        {
          "id": "6",
          "slug": "test-thread-6",
          "title": "Test Thread 6",
          "text": "Test thread 6 text.",
          "image": "",
          "imageThumbnail": "",
          "score": 0,
          "starred": false,
          "starCount": 0,
          "commentCount": 1,
          "created": "2020-01-01T12:00:00+00:00",
          "modified": "2020-01-01T12:00:00+00:00",
          "vote": null,
          "user": {
            "id": "4",
            "slug": "testuser4",
            "username": "testuser4"
          }
        },
        {
          "id": "7",
          "slug": "test-thread-7",
          "title": "Test Thread 7",
          "text": "Test thread 7 text.",
          "image": "",
          "imageThumbnail": "",
          "score": 0,
          "starred": false,
          "starCount": 0,
          "commentCount": 1,
          "created": "2020-01-01T12:00:00+00:00",
          "modified": "2020-01-01T12:00:00+00:00",
          "vote": null,
          "user": null
        },
        {
          "id": "31",
          "slug": "asdadsdas",
          "title": "asdadsdas",
          "text": "",
          "image": "",
          "imageThumbnail": "",
          "score": 0,
          "starred": false,
          "starCount": 0,
          "commentCount": 1,
          "created": "2021-03-30T15:28:42.522353+00:00",
          "modified": "2021-03-30T15:28:42.522259+00:00",
          "vote": null,
          "user": {
            "id": "2",
            "slug": "testuser2",
            "username": "testuser2"
          }
        },
        {
          "id": "32",
          "slug": "asdsads",
          "title": "asdsads",
          "text": "",
          "image": "",
          "imageThumbnail": "",
          "score": 0,
          "starred": false,
          "starCount": 0,
          "commentCount": 1,
          "created": "2021-03-30T15:29:41.808256+00:00",
          "modified": "2021-03-30T15:29:41.808121+00:00",
          "vote": null,
          "user": {
            "id": "2",
            "slug": "testuser2",
            "username": "testuser2"
          }
        },
        {
          "id": "10",
          "slug": "test-thread-10",
          "title": "Test Thread 10",
          "text": "Test thread 10 text.",
          "image": "",
          "imageThumbnail": "",
          "score": 0,
          "starred": false,
          "starCount": 0,
          "commentCount": 0,
          "created": "2020-01-01T12:00:00+00:00",
          "modified": "2020-01-01T12:00:00+00:00",
          "vote": null,
          "user": {
            "id": "4",
            "slug": "testuser4",
            "username": "testuser4"
          }
        },
        {
          "id": "11",
          "slug": "test-thread-11",
          "title": "Test Thread 11",
          "text": "Test thread 11 text.",
          "image": "",
          "imageThumbnail": "",
          "score": 0,
          "starred": false,
          "starCount": 0,
          "commentCount": 0,
          "created": "2020-01-01T12:00:00+00:00",
          "modified": "2020-01-01T12:00:00+00:00",
          "vote": null,
          "user": {
            "id": "3",
            "slug": "testuser3",
            "username": "testuser3"
          }
        },
        {
          "id": "12",
          "slug": "test-thread-12",
          "title": "Test Thread 12",
          "text": "Test thread 12 text.",
          "image": "",
          "imageThumbnail": "",
          "score": 0,
          "starred": false,
          "starCount": 0,
          "commentCount": 0,
          "created": "2020-01-01T12:00:00+00:00",
          "modified": "2020-01-01T12:00:00+00:00",
          "vote": null,
          "user": {
            "id": "4",
            "slug": "testuser4",
            "username": "testuser4"
          }
        },
        {
          "id": "13",
          "slug": "test-thread-13",
          "title": "Test Thread 13",
          "text": "Test thread 13 text.",
          "image": "",
          "imageThumbnail": "",
          "score": 0,
          "starred": false,
          "starCount": 0,
          "commentCount": 0,
          "created": "2020-01-01T12:00:00+00:00",
          "modified": "2020-01-01T12:00:00+00:00",
          "vote": null,
          "user": {
            "id": "4",
            "slug": "testuser4",
            "username": "testuser4"
          }
        },
        {
          "id": "14",
          "slug": "test-thread-14",
          "title": "Test Thread 14",
          "text": "Test thread 14 text.",
          "image": "",
          "imageThumbnail": "",
          "score": 0,
          "starred": false,
          "starCount": 0,
          "commentCount": 0,
          "created": "2020-01-01T12:00:00+00:00",
          "modified": "2020-01-01T12:00:00+00:00",
          "vote": null,
          "user": {
            "id": "4",
            "slug": "testuser4",
            "username": "testuser4"
          }
        },
        {
          "id": "15",
          "slug": "test-thread-15",
          "title": "Test Thread 15",
          "text": "Test thread 15 text.",
          "image": "",
          "imageThumbnail": "",
          "score": 0,
          "starred": false,
          "starCount": 0,
          "commentCount": 0,
          "created": "2020-01-01T12:00:00+00:00",
          "modified": "2020-01-01T12:00:00+00:00",
          "vote": null,
          "user": {
            "id": "4",
            "slug": "testuser4",
            "username": "testuser4"
          }
        },
        {
          "id": "16",
          "slug": "test-thread-16",
          "title": "Test Thread 16",
          "text": "Test thread 16 text.",
          "image": "",
          "imageThumbnail": "",
          "score": 0,
          "starred": false,
          "starCount": 0,
          "commentCount": 0,
          "created": "2020-01-01T12:00:00+00:00",
          "modified": "2020-01-01T12:00:00+00:00",
          "vote": null,
          "user": {
            "id": "4",
            "slug": "testuser4",
            "username": "testuser4"
          }
        },
        {
          "id": "17",
          "slug": "test-thread-17",
          "title": "Test Thread 17",
          "text": "Test thread 17 text.",
          "image": "",
          "imageThumbnail": "",
          "score": 0,
          "starred": false,
          "starCount": 0,
          "commentCount": 0,
          "created": "2020-01-01T12:00:00+00:00",
          "modified": "2020-01-01T12:00:00+00:00",
          "vote": null,
          "user": {
            "id": "4",
            "slug": "testuser4",
            "username": "testuser4"
          }
        },
        {
          "id": "18",
          "slug": "test-thread-18",
          "title": "Test Thread 18",
          "text": "Test thread 18 text.",
          "image": "",
          "imageThumbnail": "",
          "score": 0,
          "starred": false,
          "starCount": 0,
          "commentCount": 0,
          "created": "2020-01-01T12:00:00+00:00",
          "modified": "2020-01-01T12:00:00+00:00",
          "vote": null,
          "user": {
            "id": "4",
            "slug": "testuser4",
            "username": "testuser4"
          }
        },
        {
          "id": "19",
          "slug": "test-thread-19",
          "title": "Test Thread 19",
          "text": "Test thread 19 text.",
          "image": "",
          "imageThumbnail": "",
          "score": 0,
          "starred": false,
          "starCount": 0,
          "commentCount": 0,
          "created": "2020-01-01T12:00:00+00:00",
          "modified": "2020-01-01T12:00:00+00:00",
          "vote": null,
          "user": {
            "id": "4",
            "slug": "testuser4",
            "username": "testuser4"
          }
        },
        {
          "id": "20",
          "slug": "test-thread-20",
          "title": "Test Thread 20",
          "text": "Test thread 20 text.",
          "image": "",
          "imageThumbnail": "",
          "score": 0,
          "starred": false,
          "starCount": 0,
          "commentCount": 0,
          "created": "2020-01-01T12:00:00+00:00",
          "modified": "2020-01-01T12:00:00+00:00",
          "vote": null,
          "user": {
            "id": "4",
            "slug": "testuser4",
            "username": "testuser4"
          }
        },
        {
          "id": "21",
          "slug": "test-thread-21",
          "title": "Test Thread 21",
          "text": "Test thread 21 text.",
          "image": "",
          "imageThumbnail": "",
          "score": 0,
          "starred": false,
          "starCount": 0,
          "commentCount": 0,
          "created": "2020-01-01T12:00:00+00:00",
          "modified": "2020-01-01T12:00:00+00:00",
          "vote": null,
          "user": {
            "id": "4",
            "slug": "testuser4",
            "username": "testuser4"
          }
        },
        {
          "id": "22",
          "slug": "test-thread-22",
          "title": "Test Thread 22",
          "text": "Test thread 22 text.",
          "image": "",
          "imageThumbnail": "",
          "score": 0,
          "starred": false,
          "starCount": 0,
          "commentCount": 0,
          "created": "2020-01-01T12:00:00+00:00",
          "modified": "2020-01-01T12:00:00+00:00",
          "vote": null,
          "user": {
            "id": "4",
            "slug": "testuser4",
            "username": "testuser4"
          }
        },
        {
          "id": "23",
          "slug": "test-thread-23",
          "title": "Test Thread 23",
          "text": "Test thread 23 text.",
          "image": "",
          "imageThumbnail": "",
          "score": 0,
          "starred": false,
          "starCount": 0,
          "commentCount": 0,
          "created": "2020-01-01T12:00:00+00:00",
          "modified": "2020-01-01T12:00:00+00:00",
          "vote": null,
          "user": {
            "id": "4",
            "slug": "testuser4",
            "username": "testuser4"
          }
        },
        {
          "id": "24",
          "slug": "test-thread-24",
          "title": "Test Thread 24",
          "text": "Test thread 24 text.",
          "image": "",
          "imageThumbnail": "",
          "score": 0,
          "starred": false,
          "starCount": 0,
          "commentCount": 0,
          "created": "2020-01-01T12:00:00+00:00",
          "modified": "2020-01-01T12:00:00+00:00",
          "vote": null,
          "user": {
            "id": "4",
            "slug": "testuser4",
            "username": "testuser4"
          }
        },
        {
          "id": "25",
          "slug": "test-thread-25",
          "title": "Test Thread 25",
          "text": "Test thread 25 text.",
          "image": "",
          "imageThumbnail": "",
          "score": 0,
          "starred": false,
          "starCount": 0,
          "commentCount": 0,
          "created": "2020-01-01T12:00:00+00:00",
          "modified": "2020-01-01T12:00:00+00:00",
          "vote": null,
          "user": {
            "id": "4",
            "slug": "testuser4",
            "username": "testuser4"
          }
        },
        {
          "id": "26",
          "slug": "test-thread-26",
          "title": "Test Thread 26",
          "text": "Test thread 26 text.",
          "image": "",
          "imageThumbnail": "",
          "score": 0,
          "starred": false,
          "starCount": 0,
          "commentCount": 0,
          "created": "2020-01-01T12:00:00+00:00",
          "modified": "2020-01-01T12:00:00+00:00",
          "vote": null,
          "user": {
            "id": "11",
            "slug": "testuser11",
            "username": "testuser11"
          }
        }
      ]
    }
  }
}
