{
  "data": {
    "user": {
      "id": "2",
      "username": "testuser2",
      "title": "",
      "bio": "",
      "avatar": "/media/uploads/avatars/test_avatar.jpg",
      "score": 0,
      "created": "2020-01-01T12:00:00+00:00",
      "verified": true,
      "rank": "Freshman",
      "badges": [
        {
          "name": "Tester",
          "description": "For user's that like to test stuff."
        }
      ]
    },
    "courses": {
      "page": 1,
      "pages": 1,
      "hasPrev": false,
      "hasNext": false,
      "count": 4,
      "objects": [
        {
          "slug": "test-engineering-course-8-test0008",
          "name": "Test Engineering Course 8",
          "codes": "TEST0008",
          "score": 0,
          "starCount": 0,
          "resourceCount": 0,
          "commentCount": 0,
          "created": "2020-01-01T12:00:00+00:00",
          "user": {
            "slug": "testuser2",
            "username": "testuser2"
          },
          "courseSchool": {
            "slug": "university-of-turku"
          }
        },
        {
          "slug": "test-engineering-course-7-test0007",
          "name": "Test Engineering Course 7",
          "codes": "TEST0007",
          "score": 0,
          "starCount": 0,
          "resourceCount": 0,
          "commentCount": 1,
          "created": "2020-01-01T12:00:00+00:00",
          "user": {
            "slug": "testuser2",
            "username": "testuser2"
          },
          "courseSchool": {
            "slug": "university-of-turku"
          }
        },
        {
          "slug": "test-engineering-course-4-test0004",
          "name": "Test Engineering Course 4",
          "codes": "TEST0004",
          "score": 0,
          "starCount": 0,
          "resourceCount": 0,
          "commentCount": 1,
          "created": "2020-01-01T12:00:00+00:00",
          "user": {
            "slug": "testuser2",
            "username": "testuser2"
          },
          "courseSchool": {
            "slug": "university-of-turku"
          }
        },
        {
          "slug": "test-engineering-course-1-test0001",
          "name": "Test Engineering Course 1",
          "codes": "TEST0001",
          "score": 0,
          "starCount": 1,
          "resourceCount": 15,
          "commentCount": 18,
          "created": "2020-01-01T12:00:00+00:00",
          "user": {
            "slug": "testuser2",
            "username": "testuser2"
          },
          "courseSchool": {
            "slug": "university-of-turku"
          }
        }
      ]
    },
    "resources": {
      "page": 1,
      "pages": 2,
      "hasNext": true,
      "hasPrev": false,
      "count": 12,
      "objects": [
        {
          "slug": "sample-exercise-12-2012-12-12",
          "title": "Sample Exercise 12",
          "score": 0,
          "date": "2012-12-12",
          "starCount": 0,
          "commentCount": 1,
          "downloads": 0,
          "created": "2020-01-01T12:00:00+00:00",
          "resourceType": {
            "name": "Note"
          },
          "user": {
            "slug": "testuser2",
            "username": "testuser2"
          },
          "resourceCourse": {
            "slug": "test-engineering-course-1-test0001"
          }
        },
        {
          "slug": "sample-exercise-11-2012-12-12",
          "title": "Sample Exercise 11",
          "score": 0,
          "date": "2012-12-12",
          "starCount": 0,
          "commentCount": 1,
          "downloads": 0,
          "created": "2020-01-01T12:00:00+00:00",
          "resourceType": {
            "name": "Note"
          },
          "user": {
            "slug": "testuser2",
            "username": "testuser2"
          },
          "resourceCourse": {
            "slug": "test-engineering-course-1-test0001"
          }
        },
        {
          "slug": "sample-exercise-10-2012-12-12",
          "title": "Sample Exercise 10",
          "score": 0,
          "date": "2012-12-12",
          "starCount": 0,
          "commentCount": 1,
          "downloads": 0,
          "created": "2020-01-01T12:00:00+00:00",
          "resourceType": {
            "name": "Note"
          },
          "user": {
            "slug": "testuser2",
            "username": "testuser2"
          },
          "resourceCourse": {
            "slug": "test-engineering-course-1-test0001"
          }
        },
        {
          "slug": "sample-exercise-9-2012-12-12",
          "title": "Sample Exercise 9",
          "score": 0,
          "date": "2012-12-12",
          "starCount": 0,
          "commentCount": 1,
          "downloads": 0,
          "created": "2020-01-01T12:00:00+00:00",
          "resourceType": {
            "name": "Note"
          },
          "user": {
            "slug": "testuser2",
            "username": "testuser2"
          },
          "resourceCourse": {
            "slug": "test-engineering-course-1-test0001"
          }
        },
        {
          "slug": "sample-exercise-8-2012-12-12",
          "title": "Sample Exercise 8",
          "score": 0,
          "date": "2012-12-12",
          "starCount": 0,
          "commentCount": 1,
          "downloads": 0,
          "created": "2020-01-01T12:00:00+00:00",
          "resourceType": {
            "name": "Note"
          },
          "user": {
            "slug": "testuser2",
            "username": "testuser2"
          },
          "resourceCourse": {
            "slug": "test-engineering-course-1-test0001"
          }
        },
        {
          "slug": "sample-exercise-7-2012-12-12",
          "title": "Sample Exercise 7",
          "score": 0,
          "date": "2012-12-12",
          "starCount": 0,
          "commentCount": 1,
          "downloads": 0,
          "created": "2020-01-01T12:00:00+00:00",
          "resourceType": {
            "name": "Note"
          },
          "user": {
            "slug": "testuser2",
            "username": "testuser2"
          },
          "resourceCourse": {
            "slug": "test-engineering-course-1-test0001"
          }
        },
        {
          "slug": "sample-exercise-6-2012-12-12",
          "title": "Sample Exercise 6",
          "score": 0,
          "date": "2012-12-12",
          "starCount": 0,
          "commentCount": 1,
          "downloads": 0,
          "created": "2020-01-01T12:00:00+00:00",
          "resourceType": {
            "name": "Note"
          },
          "user": {
            "slug": "testuser2",
            "username": "testuser2"
          },
          "resourceCourse": {
            "slug": "test-engineering-course-1-test0001"
          }
        },
        {
          "slug": "sample-exercise-5-2012-12-12",
          "title": "Sample Exercise 5",
          "score": 0,
          "date": "2012-12-12",
          "starCount": 0,
          "commentCount": 1,
          "downloads": 0,
          "created": "2020-01-01T12:00:00+00:00",
          "resourceType": {
            "name": "Note"
          },
          "user": {
            "slug": "testuser2",
            "username": "testuser2"
          },
          "resourceCourse": {
            "slug": "test-engineering-course-1-test0001"
          }
        },
        {
          "slug": "sample-exercise-4-2012-12-12",
          "title": "Sample Exercise 4",
          "score": 0,
          "date": "2012-12-12",
          "starCount": 0,
          "commentCount": 1,
          "downloads": 0,
          "created": "2020-01-01T12:00:00+00:00",
          "resourceType": {
            "name": "Note"
          },
          "user": {
            "slug": "testuser2",
            "username": "testuser2"
          },
          "resourceCourse": {
            "slug": "test-engineering-course-1-test0001"
          }
        },
        {
          "slug": "sample-exercise-3-2012-12-12",
          "title": "Sample Exercise 3",
          "score": 0,
          "date": "2012-12-12",
          "starCount": 0,
          "commentCount": 1,
          "downloads": 0,
          "created": "2020-01-01T12:00:00+00:00",
          "resourceType": {
            "name": "Note"
          },
          "user": {
            "slug": "testuser2",
            "username": "testuser2"
          },
          "resourceCourse": {
            "slug": "test-engineering-course-1-test0001"
          }
        }
      ]
    },
    "comments": {
      "page": 1,
      "pages": 2,
      "hasNext": true,
      "hasPrev": false,
      "count": 17,
      "objects": [
        {
          "id": "21",
          "text": "Reply 10 to a comment.",
          "attachment": "",
          "attachmentThumbnail": "",
          "created": "2020-01-01T12:00:00+00:00",
          "score": 0,
          "replyCount": 0,
          "user": {
            "id": "2",
            "slug": "testuser2",
            "username": "testuser2",
            "avatarThumbnail": "/media/CACHE/images/uploads/avatars/test_avatar/091ab966bf90f3c02d97ebcb85d69145.jpg"
          },
          "course": null,
          "resource": null,
          "school": null,
          "comment": {
            "course": {
              "slug": "test-engineering-course-1-test0001",
              "name": "Test Engineering Course 1"
            },
            "resource": null,
            "school": null
          }
        },
        {
          "id": "20",
          "text": "Reply 9 to a comment.",
          "attachment": "",
          "attachmentThumbnail": "",
          "created": "2020-01-01T12:00:00+00:00",
          "score": 0,
          "replyCount": 0,
          "user": {
            "id": "2",
            "slug": "testuser2",
            "username": "testuser2",
            "avatarThumbnail": "/media/CACHE/images/uploads/avatars/test_avatar/091ab966bf90f3c02d97ebcb85d69145.jpg"
          },
          "course": null,
          "resource": null,
          "school": null,
          "comment": {
            "course": {
              "slug": "test-engineering-course-1-test0001",
              "name": "Test Engineering Course 1"
            },
            "resource": null,
            "school": null
          }
        },
        {
          "id": "19",
          "text": "Reply 8 to a comment.",
          "attachment": "",
          "attachmentThumbnail": "",
          "created": "2020-01-01T12:00:00+00:00",
          "score": 0,
          "replyCount": 0,
          "user": {
            "id": "2",
            "slug": "testuser2",
            "username": "testuser2",
            "avatarThumbnail": "/media/CACHE/images/uploads/avatars/test_avatar/091ab966bf90f3c02d97ebcb85d69145.jpg"
          },
          "course": null,
          "resource": null,
          "school": null,
          "comment": {
            "course": {
              "slug": "test-engineering-course-1-test0001",
              "name": "Test Engineering Course 1"
            },
            "resource": null,
            "school": null
          }
        },
        {
          "id": "18",
          "text": "Reply 7 to a comment.",
          "attachment": "",
          "attachmentThumbnail": "",
          "created": "2020-01-01T12:00:00+00:00",
          "score": 0,
          "replyCount": 0,
          "user": {
            "id": "2",
            "slug": "testuser2",
            "username": "testuser2",
            "avatarThumbnail": "/media/CACHE/images/uploads/avatars/test_avatar/091ab966bf90f3c02d97ebcb85d69145.jpg"
          },
          "course": null,
          "resource": null,
          "school": null,
          "comment": {
            "course": {
              "slug": "test-engineering-course-1-test0001",
              "name": "Test Engineering Course 1"
            },
            "resource": null,
            "school": null
          }
        },
        {
          "id": "17",
          "text": "Reply 6 to a comment.",
          "attachment": "",
          "attachmentThumbnail": "",
          "created": "2020-01-01T12:00:00+00:00",
          "score": 0,
          "replyCount": 0,
          "user": {
            "id": "2",
            "slug": "testuser2",
            "username": "testuser2",
            "avatarThumbnail": "/media/CACHE/images/uploads/avatars/test_avatar/091ab966bf90f3c02d97ebcb85d69145.jpg"
          },
          "course": null,
          "resource": null,
          "school": null,
          "comment": {
            "course": {
              "slug": "test-engineering-course-1-test0001",
              "name": "Test Engineering Course 1"
            },
            "resource": null,
            "school": null
          }
        },
        {
          "id": "16",
          "text": "Reply 5 to a comment.",
          "attachment": "",
          "attachmentThumbnail": "",
          "created": "2020-01-01T12:00:00+00:00",
          "score": 0,
          "replyCount": 0,
          "user": {
            "id": "2",
            "slug": "testuser2",
            "username": "testuser2",
            "avatarThumbnail": "/media/CACHE/images/uploads/avatars/test_avatar/091ab966bf90f3c02d97ebcb85d69145.jpg"
          },
          "course": null,
          "resource": null,
          "school": null,
          "comment": {
            "course": {
              "slug": "test-engineering-course-1-test0001",
              "name": "Test Engineering Course 1"
            },
            "resource": null,
            "school": null
          }
        },
        {
          "id": "15",
          "text": "Reply 4 to a comment.",
          "attachment": "",
          "attachmentThumbnail": "",
          "created": "2020-01-01T12:00:00+00:00",
          "score": 0,
          "replyCount": 0,
          "user": {
            "id": "2",
            "slug": "testuser2",
            "username": "testuser2",
            "avatarThumbnail": "/media/CACHE/images/uploads/avatars/test_avatar/091ab966bf90f3c02d97ebcb85d69145.jpg"
          },
          "course": null,
          "resource": null,
          "school": null,
          "comment": {
            "course": {
              "slug": "test-engineering-course-1-test0001",
              "name": "Test Engineering Course 1"
            },
            "resource": null,
            "school": null
          }
        },
        {
          "id": "14",
          "text": "Reply 3 to a comment.",
          "attachment": "",
          "attachmentThumbnail": "",
          "created": "2020-01-01T12:00:00+00:00",
          "score": 0,
          "replyCount": 0,
          "user": {
            "id": "2",
            "slug": "testuser2",
            "username": "testuser2",
            "avatarThumbnail": "/media/CACHE/images/uploads/avatars/test_avatar/091ab966bf90f3c02d97ebcb85d69145.jpg"
          },
          "course": null,
          "resource": null,
          "school": null,
          "comment": {
            "course": {
              "slug": "test-engineering-course-1-test0001",
              "name": "Test Engineering Course 1"
            },
            "resource": null,
            "school": null
          }
        },
        {
          "id": "13",
          "text": "Reply 2 to a comment.",
          "attachment": "",
          "attachmentThumbnail": "",
          "created": "2020-01-01T12:00:00+00:00",
          "score": 0,
          "replyCount": 0,
          "user": {
            "id": "2",
            "slug": "testuser2",
            "username": "testuser2",
            "avatarThumbnail": "/media/CACHE/images/uploads/avatars/test_avatar/091ab966bf90f3c02d97ebcb85d69145.jpg"
          },
          "course": null,
          "resource": null,
          "school": null,
          "comment": {
            "course": {
              "slug": "test-engineering-course-1-test0001",
              "name": "Test Engineering Course 1"
            },
            "resource": null,
            "school": null
          }
        },
        {
          "id": "11",
          "text": "Comment 8 to a course.",
          "attachment": "",
          "attachmentThumbnail": "",
          "created": "2020-01-01T12:00:00+00:00",
          "score": 0,
          "replyCount": 0,
          "user": {
            "id": "2",
            "slug": "testuser2",
            "username": "testuser2",
            "avatarThumbnail": "/media/CACHE/images/uploads/avatars/test_avatar/091ab966bf90f3c02d97ebcb85d69145.jpg"
          },
          "course": {
            "slug": "test-engineering-course-1-test0001",
            "name": "Test Engineering Course 1"
          },
          "resource": null,
          "school": null,
          "comment": null
        }
      ]
    }
  }
}
